{
    "code": 200,
    "message": "OK",
    "data": [
      {
        "id": 1,
        "image_thumb":" https://demo.dreite.co.id/blackowl/sources/images/cache/outlet/outlet-testing-imran-cu2-150x150.jpg",
        "name":"BlackOwlPIK",
        "open_at_display": "Sunday-11.00until04.00",
        "status_name": "Open",
        "status_disabled": 0
      },
      {
        "id": 2,
        "image_thumb": "https://demo.dreite.co.id/blackowl/sources/images/cache/outlet/outlet-dreite-43o-150x150.jpg",
        "name": "BlackGadingSerpong",
        "open_at_display": "Sunday-11.00until04.00",
        "status_name": "Closed",
        "status_disabled": 1
      }
    ],
    "meta": {
      "page": 1,
      "per_page": 10,
      "count": 1,
      "total_page": 1,
      "total_count": 2
    }
  }